{"info":{"name":"Fall","description":"DavideFalls","PersonID":"PersonID","accelS1":"accelS1","accelS2":"accelS2","TimeStamp":"TimeStamp"},"feeds":[
  {
    "PersonID": 1,
    "accelS1": 15.093576864289,
    "accelS2": 5.52421473971641,
    "TimeStamp": 45611
  },
  {
    "PersonID": 1,
    "accelS1": 10.0671298310343,
    "accelS2": 12.0643218866375,
    "TimeStamp": 45660
  },
  {
    "PersonID": 1,
    "accelS1": 9.78007243725463,
    "accelS2": 15.4456518165462,
    "TimeStamp": 45708
  },
  {
    "PersonID": 1,
    "accelS1": 5.52618293662994,
    "accelS2": 10.0045935393913,
    "TimeStamp": 45757
  },
  {
    "PersonID": 1,
    "accelS1": 8.51255931584621,
    "accelS2": 10.2684211244858,
    "TimeStamp": 45806
  },
  {
    "PersonID": 1,
    "accelS1": 9.61109686487448,
    "accelS2": 9.91329430206034,
    "TimeStamp": 45856
  },
  {
    "PersonID": 1,
    "accelS1": 3.86286111752675,
    "accelS2": 31.5483388268191,
    "TimeStamp": 45903
  },
  {
    "PersonID": 1,
    "accelS1": 7.7097667970321,
    "accelS2": 27.7125867318859,
    "TimeStamp": 45951
  },
  {
    "PersonID": 1,
    "accelS1": 7.4662993444891,
    "accelS2": 25.3367992213874,
    "TimeStamp": 46000
  },
  {
    "PersonID": 1,
    "accelS1": 11.9098813962608,
    "accelS2": 18.0007057895628,
    "TimeStamp": 46049
  },
  {
    "PersonID": 1,
    "accelS1": 6.87725780282374,
    "accelS2": 9.87323229512506,
    "TimeStamp": 46098
  },
  {
    "PersonID": 1,
    "accelS1": 7.98715958384456,
    "accelS2": 12.2547672818785,
    "TimeStamp": 46146
  },
  {
    "PersonID": 1,
    "accelS1": 7.94189633252663,
    "accelS2": 11.840686255167,
    "TimeStamp": 46195
  },
  {
    "PersonID": 1,
    "accelS1": 7.25150130420591,
    "accelS2": 9.84101611398567,
    "TimeStamp": 46244
  },
  {
    "PersonID": 1,
    "accelS1": 8.8893358944651,
    "accelS2": 9.84101611398567,
    "TimeStamp": 46340
  },
  {
    "PersonID": 1,
    "accelS1": 1.0903898519654,
    "accelS2": 10.5925674166809,
    "TimeStamp": 46342
  },
  {
    "PersonID": 1,
    "accelS1": 29.4210893772748,
    "accelS2": 30.0365059243148,
    "TimeStamp": 46438
  },
  {
    "PersonID": 1,
    "accelS1": 4.4790980719001,
    "accelS2": 26.6349232263452,
    "TimeStamp": 46440
  },
  {
    "PersonID": 1,
    "accelS1": 10.070914656877,
    "accelS2": 11.5433524264184,
    "TimeStamp": 46536
  },
  {
    "PersonID": 1,
    "accelS1": 13.1593352592333,
    "accelS2": 12.7964860322864,
    "TimeStamp": 46538
  },
  {
    "PersonID": 1,
    "accelS1": 12.1064223908552,
    "accelS2": 9.49260329950641,
    "TimeStamp": 46586
  }
]}
